[gd_scene load_steps=6 format=2]

[ext_resource path="res://Scenes/Interactions/Button_Opens_Gate/Gate.gd" type="Script" id=1]
[ext_resource path="res://Material/Gate_Color.tres" type="Material" id=2]
[ext_resource path="res://Sounds/Gate Sliding/Gate sfx fast fixed.wav" type="AudioStream" id=3]

[sub_resource type="CubeMesh" id=1]

[sub_resource type="ConvexPolygonShape" id=2]
points = PoolVector3Array( -1, 1, 1, 1, 1, -1, 1, 1, 1, -1, 1, -1, -1, -1, 1, 1, -1, -1, 1, -1, 1, -1, -1, -1, 1, 1, 1, -1, 1, -1, 1, 1, -1, -1, 1, 1, 1, -1, 1, -1, -1, -1, 1, -1, -1, -1, -1, 1, 1, 1, 1, -1, -1, 1, -1, 1, 1, 1, -1, 1, 1, 1, -1, -1, -1, -1, -1, 1, -1, 1, -1, -1 )

[node name="Gate" type="Spatial" groups=[
"Gate",
]]
script = ExtResource( 1 )
MOVEMENT_SPEED = 2
end_x_value = 7

[node name="MeshInstance" type="MeshInstance" parent="."]
transform = Transform( 5, 0, 0, 0, 4, 0, 0, 0, 0.3, 0, 0, 0 )
mesh = SubResource( 1 )
material/0 = ExtResource( 2 )

[node name="StaticBody" type="StaticBody" parent="MeshInstance"]

[node name="CollisionShape" type="CollisionShape" parent="MeshInstance/StaticBody"]
shape = SubResource( 2 )

[node name="Sliding" type="AudioStreamPlayer3D" parent="."]
transform = Transform( 1, 0, 0, 0, 1, 0, 0, 0, 1, 0, 0, 0.649393 )
stream = ExtResource( 3 )
