<?xml version="1.0" encoding="utf-8"?>
<COLLADA xmlns="http://www.collada.org/2005/11/COLLADASchema" version="1.4.1">
<asset>
	<contributor>
		<author>Anonymous</author>
		<authoring_tool>Collada Exporter for Blender 2.6+, by Juan Linietsky (juan@codenix.com)</authoring_tool>
	</contributor>
	<created>2019-07-19T14:13:20Z</created>
	<modified>2019-07-19T14:13:20Z</modified>
	<unit meter="1.0" name="meter"/>
	<up_axis>Z_UP</up_axis>
</asset>
<library_effects>
	<effect id="id-fx-2" name="Material-fx">
		<profile_COMMON>
			<technique sid="common">
				<blinn>
					<emission>
						<color>  0.0 0.0 0.0 1.0 </color>
					</emission>
					<ambient>
						<color>  0.0 0.0 0.0 1.0 </color>
					</ambient>
					<diffuse>
						<color>  0.6400000190734865 0.6400000190734865 0.6400000190734865 1.0 </color>
					</diffuse>
					<specular>
						<color>  0.5 0.5 0.5 1.0 </color>
					</specular>
					<shininess>
						<float>50</float>
					</shininess>
					<reflective>
						<color>  1.0 1.0 1.0 1.0 </color>
					</reflective>
					<index_of_refraction>
						<float>4.0</float>
					</index_of_refraction>
				</blinn>
				<extra>
					<technique profile="FCOLLADA">
					</technique>
					<technique profile="GOOGLEEARTH">
						<double_sided>0</double_sided>
					</technique>
				</extra>
			</technique>
		</profile_COMMON>
	</effect>
	<effect id="id-fx-4" name="Material.001-fx">
		<profile_COMMON>
			<technique sid="common">
				<blinn>
					<emission>
						<color>  0.0 0.0 0.0 1.0 </color>
					</emission>
					<ambient>
						<color>  0.0 0.0 0.0 1.0 </color>
					</ambient>
					<diffuse>
						<color>  0.15214226472589765 0.15214226472589765 0.15214226472589765 1.0 </color>
					</diffuse>
					<specular>
						<color>  0.5 0.5 0.5 1.0 </color>
					</specular>
					<shininess>
						<float>50</float>
					</shininess>
					<reflective>
						<color>  1.0 1.0 1.0 1.0 </color>
					</reflective>
					<index_of_refraction>
						<float>4.0</float>
					</index_of_refraction>
				</blinn>
				<extra>
					<technique profile="FCOLLADA">
					</technique>
					<technique profile="GOOGLEEARTH">
						<double_sided>0</double_sided>
					</technique>
				</extra>
			</technique>
		</profile_COMMON>
	</effect>
</library_effects>
<library_materials>
	<material id="id-material-3" name="Material">
		<instance_effect url="#id-fx-2"/>
	</material>
	<material id="id-material-5" name="Material.001">
		<instance_effect url="#id-fx-4"/>
	</material>
</library_materials>
<library_geometries>
	<geometry id="id-mesh-6" name="Cube">
		<mesh>
			<source id="id-mesh-6-positions">
				<float_array id="id-mesh-6-positions-array" count="390"> 1.0 -0.9999996423721313 -1.0 -0.9999996423721313 1.0000003576278687 -1.0 1.0 0.9999999403953552 -1.0 -0.9999999403953552 1.0 1.0 0.9999993443489075 -1.000000238418579 1.0 1.0000004768371582 0.999999463558197 1.0 0.999999463558197 -1.0000003576278687 0.7000000476837158 1.0500004291534424 0.9999995231628418 0.7000012397766113 1.0000004768371582 0.9999995231628418 0.699999988079071 0.999999463558197 -1.0000003576278687 0.7000000476837158 0.9999993443489075 -1.000000238418579 1.0 -1.0000003576278687 -0.9999996423721313 1.0 -0.9999998211860657 1.0 0.699999988079071 -0.9999995827674866 1.000000238418579 -0.7000000476837158 -1.0000001192092896 -0.9999998211860657 -1.0 -0.9999995827674866 1.000000238418579 -0.7000000476837158 1.0 1.0499998331069946 -0.6999952793121338 1.0 0.9999998807907104 -0.699999988079071 1.0000001192092896 -1.0 -0.7000000476837158 1.0 0.9999999403953552 -1.0 1.0 0.9999998807907104 -0.699999988079071 -0.9999995827674866 1.000000238418579 -0.7000000476837158 1.0 0.9999999403953552 -1.0 -0.9999996423721313 1.0000003576278687 -1.0 1.0500004291534424 0.9999995231628418 0.7000012397766113 1.0500000715255737 -1.0 -0.6999987959861755 1.0499999523162842 0.9999998807907104 -0.6999987363815308 1.0000004768371582 0.9999995231628418 0.699999988079071 0.9999993443489075 -1.000000238418579 1.0 0.999999463558197 -1.0000003576278687 0.7000000476837158 -0.9999998211860657 1.0 0.699999988079071 1.0000004768371582 0.999999463558197 1.0 1.0000004768371582 0.9999995231628418 0.699999988079071 -0.9999998211860657 1.0 0.699999988079071 -0.9999995827674866 1.0500001907348633 -0.6999953389167786 -0.9999995827674866 1.000000238418579 -0.7000000476837158 0.999999463558197 -1.0000003576278687 0.7000000476837158 1.0500000715255737 -1.0 -0.6999987959861755 1.049999475479126 -1.0000003576278687 0.7000012993812561 1.0 0.9999998807907104 -0.699999988079071 1.0500000715255737 -1.0 -0.6999987959861755 1.0000001192092896 -1.0 -0.7000000476837158 1.0 1.0499998331069946 -0.6999952793121338 -0.9999998211860657 1.0499999523162842 0.7000046968460083 1.0000004768371582 1.049999475479126 0.7000046968460083 1.0000004768371582 1.049999475479126 0.7000046968460083 1.0499999523162842 1.0499998331069946 -0.6999940276145935 1.0 1.0499998331069946 -0.6999952793121338 1.0 0.9999998807907104 -0.699999988079071 1.0499999523162842 1.0499998331069946 -0.6999940276145935 1.0499999523162842 0.9999998807907104 -0.6999987363815308 1.0500004291534424 0.9999995231628418 0.7000012397766113 1.0499999523162842 1.0499998331069946 -0.6999940276145935 1.0500004291534424 1.049999475479126 0.7000059485435486 1.0500004291534424 0.9999995231628418 0.7000012397766113 1.0000004768371582 1.049999475479126 0.7000046968460083 1.0000004768371582 0.9999995231628418 0.699999988079071 1.0000004768371582 0.9999995231628418 0.699999988079071 -0.9999998211860657 1.0499999523162842 0.7000046968460083 -0.9999998211860657 1.0 0.699999988079071 1.0 -0.9999996423721313 -1.0 -1.0000001192092896 -0.9999998211860657 -1.0 -0.9999996423721313 1.0000003576278687 -1.0 -1.0000003576278687 -0.9999996423721313 1.0 0.999999463558197 -1.0000003576278687 0.7000000476837158 1.049999475479126 -1.0000003576278687 0.7000012993812561 1.0500004291534424 0.9999995231628418 0.7000012397766113 -1.0000003576278687 -0.9999996423721313 1.0 -1.0000001192092896 -0.9999998211860657 -1.0 1.0000001192092896 -1.0 -0.7000000476837158 -1.0000001192092896 -0.9999998211860657 -1.0 1.0 -0.9999996423721313 -1.0 1.0000001192092896 -1.0 -0.7000000476837158 1.0000001192092896 -1.0 -0.7000000476837158 0.999999463558197 -1.0000003576278687 0.7000000476837158 -1.0000003576278687 -0.9999996423721313 1.0 -0.9999995827674866 1.000000238418579 -0.7000000476837158 -0.9999996423721313 1.0000003576278687 -1.0 -1.0000001192092896 -0.9999998211860657 -1.0 -1.0000001192092896 -0.9999998211860657 -1.0 -1.0000003576278687 -0.9999996423721313 1.0 -0.9999998211860657 1.0 0.699999988079071 -1.0000003576278687 -0.9999996423721313 1.0 -0.9999999403953552 1.0 1.0 -0.9999998211860657 1.0 0.699999988079071 -0.9999995827674866 1.000000238418579 -0.7000000476837158 -0.9999995827674866 1.0500001907348633 -0.6999953389167786 1.0 1.0499998331069946 -0.6999952793121338 1.0000001192092896 -1.0 -0.7000000476837158 1.0 -0.9999996423721313 -1.0 1.0 0.9999999403953552 -1.0 -0.9999995827674866 1.000000238418579 -0.7000000476837158 1.0 0.9999998807907104 -0.699999988079071 1.0 0.9999999403953552 -1.0 1.0500004291534424 0.9999995231628418 0.7000012397766113 1.049999475479126 -1.0000003576278687 0.7000012993812561 1.0500000715255737 -1.0 -0.6999987959861755 1.0000004768371582 0.9999995231628418 0.699999988079071 1.0000004768371582 0.999999463558197 1.0 0.9999993443489075 -1.000000238418579 1.0 -0.9999998211860657 1.0 0.699999988079071 -0.9999999403953552 1.0 1.0 1.0000004768371582 0.999999463558197 1.0 -0.9999998211860657 1.0 0.699999988079071 -0.9999998211860657 1.0499999523162842 0.7000046968460083 -0.9999995827674866 1.0500001907348633 -0.6999953389167786 0.999999463558197 -1.0000003576278687 0.7000000476837158 1.0000001192092896 -1.0 -0.7000000476837158 1.0500000715255737 -1.0 -0.6999987959861755 1.0 0.9999998807907104 -0.699999988079071 1.0499999523162842 0.9999998807907104 -0.6999987363815308 1.0500000715255737 -1.0 -0.6999987959861755 1.0 1.0499998331069946 -0.6999952793121338 -0.9999995827674866 1.0500001907348633 -0.6999953389167786 -0.9999998211860657 1.0499999523162842 0.7000046968460083 1.0000004768371582 1.049999475479126 0.7000046968460083 1.0500004291534424 1.049999475479126 0.7000059485435486 1.0499999523162842 1.0499998331069946 -0.6999940276145935 1.0 0.9999998807907104 -0.699999988079071 1.0 1.0499998331069946 -0.6999952793121338 1.0499999523162842 1.0499998331069946 -0.6999940276145935 1.0500004291534424 0.9999995231628418 0.7000012397766113 1.0499999523162842 0.9999998807907104 -0.6999987363815308 1.0499999523162842 1.0499998331069946 -0.6999940276145935 1.0500004291534424 0.9999995231628418 0.7000012397766113 1.0500004291534424 1.049999475479126 0.7000059485435486 1.0000004768371582 1.049999475479126 0.7000046968460083 1.0000004768371582 0.9999995231628418 0.699999988079071 1.0000004768371582 1.049999475479126 0.7000046968460083 -0.9999998211860657 1.0499999523162842 0.7000046968460083</float_array>
				<technique_common>
				<accessor source="#id-mesh-6-positions-array" count="130" stride="3">
					<param name="X" type="float"/>
					<param name="Y" type="float"/>
					<param name="Z" type="float"/>
				</accessor>
				</technique_common>
			</source>
			<source id="id-mesh-6-normals">
				<float_array id="id-mesh-6-normals-array" count="390"> 2.980233659855003e-08 0.0 -1.0 2.980233659855003e-08 0.0 -1.0 2.980233659855003e-08 0.0 -1.0 0.0 0.0 1.0 0.0 0.0 1.0 0.0 0.0 1.0 -2.3841879738029093e-05 2.981326474582602e-08 1.0 -2.3841879738029093e-05 2.981326474582602e-08 1.0 -2.3841879738029093e-05 2.981326474582602e-08 1.0 -2.9802313861182483e-07 -1.0 0.0 -2.9802313861182483e-07 -1.0 0.0 -2.9802313861182483e-07 -1.0 0.0 -1.0 3.6188532703818055e-07 -1.7029893228936999e-07 -1.0 3.6188532703818055e-07 -1.7029893228936999e-07 -1.0 3.6188532703818055e-07 -1.7029893228936999e-07 -7.450552175214398e-08 9.417496039532125e-05 -1.0 -7.450552175214398e-08 9.417496039532125e-05 -1.0 -7.450552175214398e-08 9.417496039532125e-05 -1.0 1.0 0.0 1.1842378646990687e-14 1.0 0.0 1.1842378646990687e-14 1.0 0.0 1.1842378646990687e-14 2.086163704007049e-07 1.0 0.0 2.086163704007049e-07 1.0 0.0 2.086163704007049e-07 1.0 0.0 1.0 4.044601809027881e-08 -3.405980066872871e-07 1.0 4.044601809027881e-08 -3.405980066872871e-07 1.0 4.044601809027881e-08 -3.405980066872871e-07 1.0 -4.967055247107055e-07 3.973645448240859e-07 1.0 -4.967055247107055e-07 3.973645448240859e-07 1.0 -4.967055247107055e-07 3.973645448240859e-07 2.3841855067985307e-07 1.0 0.0 2.3841855067985307e-07 1.0 0.0 2.3841855067985307e-07 1.0 0.0 -1.0 -1.702939471215359e-06 -1.7029897492193413e-07 -1.0 -1.702939471215359e-06 -1.7029897492193413e-07 -1.0 -1.702939471215359e-06 -1.7029897492193413e-07 6.394912377416517e-12 -0.9999999403953552 -2.1287790730184497e-07 6.394912377416517e-12 -0.9999999403953552 -2.1287790730184497e-07 6.394912377416517e-12 -0.9999999403953552 -2.1287790730184497e-07 2.6226070986012928e-05 2.9801899614767535e-08 -1.0 2.6226070986012928e-05 2.9801899614767535e-08 -1.0 2.6226070986012928e-05 2.9801899614767535e-08 -1.0 2.3841853646899835e-07 1.0 3.4059792142215883e-07 2.3841853646899835e-07 1.0 3.4059792142215883e-07 2.3841853646899835e-07 1.0 3.4059792142215883e-07 -6.3948958975434955e-12 1.0 2.12874113003636e-07 -6.3948958975434955e-12 1.0 2.12874113003636e-07 -6.3948958975434955e-12 1.0 2.12874113003636e-07 2.6822117433766834e-05 9.417536057299003e-05 -1.0 2.6822117433766834e-05 9.417536057299003e-05 -1.0 2.6822117433766834e-05 9.417536057299003e-05 -1.0 1.0 0.0 -3.405995698813058e-07 1.0 0.0 -3.405995698813058e-07 1.0 0.0 -3.405995698813058e-07 -2.6822195650311187e-05 -9.417563705937937e-05 1.0 -2.6822195650311187e-05 -9.417563705937937e-05 1.0 -2.6822195650311187e-05 -9.417563705937937e-05 1.0 0.0 -9.417544060852379e-05 1.0 0.0 -9.417544060852379e-05 1.0 0.0 -9.417544060852379e-05 1.0 0.0 0.0 -1.0 0.0 0.0 -1.0 0.0 0.0 -1.0 0.0 0.0 1.0 -2.3841854272177443e-05 2.981408186997214e-08 1.0 -2.3841854272177443e-05 2.981408186997214e-08 1.0 -2.3841854272177443e-05 2.981408186997214e-08 1.0 -1.0281799944777958e-07 -1.0 1.1920927533992653e-07 -1.0281799944777958e-07 -1.0 1.1920927533992653e-07 -1.0281799944777958e-07 -1.0 1.1920927533992653e-07 8.940694584680386e-08 -1.0 -1.1920932365683257e-06 8.940694584680386e-08 -1.0 -1.1920932365683257e-06 8.940694584680386e-08 -1.0 -1.1920932365683257e-06 -3.959452214985504e-07 -1.0 -3.405980066872871e-07 -3.959452214985504e-07 -1.0 -3.405980066872871e-07 -3.959452214985504e-07 -1.0 -3.405980066872871e-07 -1.0 2.9802316703353426e-07 1.9868220135776937e-07 -1.0 2.9802316703353426e-07 1.9868220135776937e-07 -1.0 2.9802316703353426e-07 1.9868220135776937e-07 -1.0 1.9371513815258368e-07 -1.1920931797249068e-07 -1.0 1.9371513815258368e-07 -1.1920931797249068e-07 -1.0 1.9371513815258368e-07 -1.1920931797249068e-07 -1.0 1.9868218714691466e-07 -3.97364289028701e-07 -1.0 1.9868218714691466e-07 -3.97364289028701e-07 -1.0 1.9868218714691466e-07 -3.97364289028701e-07 5.963875082670711e-08 9.417586261406541e-05 -1.0 5.963875082670711e-08 9.417586261406541e-05 -1.0 5.963875082670711e-08 9.417586261406541e-05 -1.0 1.0 0.0 -3.973644311372482e-07 1.0 0.0 -3.973644311372482e-07 1.0 0.0 -3.973644311372482e-07 1.7881392011531716e-07 1.0 7.947287485876586e-07 1.7881392011531716e-07 1.0 7.947287485876586e-07 1.7881392011531716e-07 1.0 7.947287485876586e-07 1.0 -5.960464477539062e-07 4.2574731651257025e-07 1.0 -5.960464477539062e-07 4.2574731651257025e-07 1.0 -5.960464477539062e-07 4.2574731651257025e-07 1.0 -5.96046561440744e-07 -1.1250261789871874e-13 1.0 -5.96046561440744e-07 -1.1250261789871874e-13 1.0 -5.96046561440744e-07 -1.1250261789871874e-13 2.682208162241295e-07 1.0 -3.9736420376357273e-07 2.682208162241295e-07 1.0 -3.9736420376357273e-07 2.682208162241295e-07 1.0 -3.9736420376357273e-07 -1.0 0.0 -1.7029897492193413e-07 -1.0 0.0 -1.7029897492193413e-07 -1.0 0.0 -1.7029897492193413e-07 6.394874213500046e-12 -1.0 -3.1931008948049566e-07 6.394874213500046e-12 -1.0 -3.1931008948049566e-07 6.394874213500046e-12 -1.0 -3.1931008948049566e-07 2.6226070986012928e-05 2.980502600280488e-08 -1.0 2.6226070986012928e-05 2.980502600280488e-08 -1.0 2.6226070986012928e-05 2.980502600280488e-08 -1.0 1.788139627478813e-07 1.0 8.514962956951422e-09 1.788139627478813e-07 1.0 8.514962956951422e-09 1.788139627478813e-07 1.0 8.514962956951422e-09 -6.3948906933730676e-12 1.0 3.6188177432450175e-07 -6.3948906933730676e-12 1.0 3.6188177432450175e-07 -6.3948906933730676e-12 1.0 3.6188177432450175e-07 2.6822117433766834e-05 9.41754478844814e-05 -1.0 2.6822117433766834e-05 9.41754478844814e-05 -1.0 2.6822117433766834e-05 9.41754478844814e-05 -1.0 1.0 -1.6178369151020888e-06 -3.4059718245771364e-07 1.0 -1.6178369151020888e-06 -3.4059718245771364e-07 1.0 -1.6178369151020888e-06 -3.4059718245771364e-07 -2.6822117433766834e-05 -9.417536057299003e-05 1.0 -2.6822117433766834e-05 -9.417536057299003e-05 1.0 -2.6822117433766834e-05 -9.417536057299003e-05 1.0 2.9757558195342426e-08 -9.41754478844814e-05 1.0 2.9757558195342426e-08 -9.41754478844814e-05 1.0 2.9757558195342426e-08 -9.41754478844814e-05 1.0</float_array>
				<technique_common>
				<accessor source="#id-mesh-6-normals-array" count="130" stride="3">
					<param name="X" type="float"/>
					<param name="Y" type="float"/>
					<param name="Z" type="float"/>
				</accessor>
				</technique_common>
			</source>
			<vertices id="id-mesh-6-vertices">
				<input semantic="POSITION" source="#id-mesh-6-positions"/>
			</vertices>
			<triangles count="20" material="id-trimat-7">
				<input semantic="VERTEX" source="#id-mesh-6-vertices" offset="0"/>
				<input semantic="NORMAL" source="#id-mesh-6-normals" offset="0"/>
				<p> 0 1 2 3 4 5 9 10 11 12 13 14 18 19 20 21 22 23 27 28 29 30 31 32 60 61 62 3 63 4 67 68 69 70 71 72 73 74 75 76 77 78 79 80 81 82 83 84 88 89 90 91 92 93 97 98 99 100 101 102 </p>
			</triangles>
			<triangles count="24" material="id-trimat-8">
				<input semantic="VERTEX" source="#id-mesh-6-vertices" offset="0"/>
				<input semantic="NORMAL" source="#id-mesh-6-normals" offset="0"/>
				<p> 6 7 8 15 16 17 24 25 26 33 34 35 36 37 38 39 40 41 42 43 44 45 46 47 48 49 50 51 52 53 54 55 56 57 58 59 64 65 66 85 86 87 94 95 96 103 104 105 106 107 108 109 110 111 112 113 114 115 116 117 118 119 120 121 122 123 124 125 126 127 128 129 </p>
			</triangles>
		</mesh>
	</geometry>
</library_geometries>
<library_visual_scenes>
	<visual_scene id="id-scene-1" name="scene">
		<node id="Cube" name="Cube" type="NODE">
			<matrix sid="transform"> 1.0 0.0 0.0 0.0 0.0 1.0 0.0 0.0 0.0 0.0 0.050000011920928955 0.0 0.0 0.0 0.0 1.0  </matrix>
			<instance_geometry url="#id-mesh-6">
				<bind_material>
					<technique_common>
						<instance_material symbol="id-trimat-7" target="#id-material-3"/>
						<instance_material symbol="id-trimat-8" target="#id-material-5"/>
					</technique_common>
				</bind_material>
			</instance_geometry>
		</node>
	</visual_scene>
</library_visual_scenes>
<scene>
	<instance_visual_scene url="#id-scene-1" />
</scene>
</COLLADA>
